<svg width="32" height="32" viewBox="0 0 32 32" fill="none" xmlns="http://www.w3.org/2000/svg">
<circle cx="16" cy="16" r="16" fill="url(#paint0_linear_349_408)"/>
<path fill-rule="evenodd" clip-rule="evenodd" d="M18.9175 15.3953L15.2798 11.8606L16.1161 11L20.8141 15.565C20.9303 15.6779 20.9959 15.8332 20.9959 15.9953C20.9959 16.1574 20.9303 16.3126 20.8141 16.4256L16.1161 20.9906L15.2798 20.1299L18.9175 16.5953H11V15.3953H18.9175Z" fill="white"/>
<defs>
<linearGradient id="paint0_linear_349_408" x1="1.5" y1="9" x2="30" y2="26" gradientUnits="userSpaceOnUse">
<stop offset="0.286458" stop-color="#B92032"/>
<stop offset="1" stop-color="#C37BFC"/>
</linearGradient>
</defs>
</svg>
