<svg width="106" height="63" viewBox="0 0 106 63" fill="none" xmlns="http://www.w3.org/2000/svg">
<path fill-rule="evenodd" clip-rule="evenodd" d="M76.4276 59.9344C85.8916 60.1624 95.5631 59.7064 104.612 62.9398C105.152 63.1305 105.745 62.8528 105.94 62.3139C106.131 61.775 105.853 61.1822 105.313 60.9874C96.0526 57.6794 86.1613 58.0939 76.4774 57.8618C75.9048 57.8452 75.4277 58.3012 75.4152 58.8732C75.3986 59.4453 75.855 59.9179 76.4276 59.9344Z" fill="#C37BFD"/>
<path fill-rule="evenodd" clip-rule="evenodd" d="M75.5771 46.2066C78.527 43.4947 81.7467 41.4631 85.6385 40.4562C86.1945 40.3128 86.5264 39.7469 86.3853 39.1931C86.2401 38.6393 85.6717 38.3064 85.1199 38.4498C80.8879 39.5442 77.3819 41.7338 74.1747 44.6807C73.7515 45.0679 73.7224 45.7241 74.1124 46.1453C74.4983 46.566 75.158 46.5938 75.5771 46.2066Z" fill="#C37BFD"/>
<path fill-rule="evenodd" clip-rule="evenodd" d="M67.3703 16.599C68.7229 11.9666 71.3866 8.34272 75.4693 5.72576C75.9506 5.41693 76.0917 4.77524 75.7805 4.29397C75.4734 3.81269 74.8303 3.67257 74.349 3.98139C69.8307 6.87899 66.8766 10.8892 65.3788 16.0182C65.2169 16.5671 65.5365 17.1433 66.0841 17.3033C66.636 17.4637 67.2127 17.1478 67.3703 16.599Z" fill="#C37BFD"/>
<path fill-rule="evenodd" clip-rule="evenodd" d="M20.7556 10.3122C19.9507 11.2586 19.2287 12.2783 18.6147 13.364C18.3408 13.8474 17.8596 14.8746 17.7849 15.7555C17.7019 16.694 18.0213 17.4857 18.8429 17.9028C19.9341 18.4558 20.8054 18.3981 21.4775 18.0636C22.1248 17.7423 22.6309 17.111 22.9504 16.2645C23.5603 14.6466 23.4691 12.1739 23.1496 10.7628C24.0084 9.87737 24.9503 9.0744 25.9585 8.36057C33.4683 3.04416 44.4841 5.0045 52.9606 12.9536C55.9272 15.7368 57.3544 21.5817 58.0971 27.8881C59.2547 37.7072 58.595 48.6741 58.5037 51.8872C58.483 52.6806 58.5576 53.1515 58.5991 53.2456C58.7941 53.7082 59.1385 53.8284 59.3792 53.874C59.7277 53.9362 60.0056 53.8699 60.2297 53.7538C60.5326 53.5946 60.7816 53.3144 60.8977 52.882C60.96 52.6433 60.9765 52.3108 60.9682 51.9564C60.9599 51.7106 60.9101 51.4419 60.9599 51.2658C61.2836 50.1374 61.6736 49.0356 62.0553 47.9259C63.329 44.1955 64.9762 40.6997 66.806 37.2081C72.6188 26.1135 78.2407 14.3908 87.7711 5.93803C88.1985 5.55873 88.24 4.90294 87.8583 4.47514C87.4807 4.04734 86.8252 4.00837 86.3937 4.38808C76.6724 13.0079 70.8969 24.9324 64.9679 36.2467C63.412 39.2169 61.9847 42.1912 60.7981 45.3023C60.9184 39.7989 60.8728 32.181 59.8646 25.4407C58.9684 19.4461 57.2631 14.1483 54.3795 11.4426C45.0939 2.7345 32.9828 0.845478 24.7594 6.66969C23.8798 7.29315 23.0417 7.97881 22.2617 8.72248C17.9591 0.960315 8.74822 -2.15079 0.607769 1.56179C0.0849876 1.79931 -0.143206 2.41449 0.0932897 2.93473C0.333935 3.45497 0.947973 3.68463 1.47075 3.4471C8.80629 0.101808 17.1252 3.08728 20.7556 10.3122ZM21.3572 12.9109C21.0211 13.3851 20.7099 13.8768 20.4195 14.385C20.266 14.6578 20.0004 15.1822 19.8884 15.6954C19.8635 15.8156 19.8594 16.0038 19.8594 16.0908C20.1457 16.2318 20.3697 16.2998 20.5523 16.2081C20.7805 16.0954 20.8967 15.8301 21.0087 15.5337C21.2908 14.79 21.3821 13.8042 21.3572 12.9109Z" fill="#C37BFD"/>
</svg>
