<svg width="79" height="75" viewBox="0 0 79 75" fill="none" xmlns="http://www.w3.org/2000/svg">
<path fill-rule="evenodd" clip-rule="evenodd" d="M76.519 1.5524C71.0922 38.6977 37.763 56.7404 2.969 60.8428C2.37153 60.9144 1.94195 61.4569 2.01353 62.0543C2.08512 62.6518 2.6275 63.0813 3.22498 63.0097C38.9936 58.7944 73.0993 40.0524 78.6776 1.86625C78.7657 1.27153 78.3527 0.718114 77.7552 0.630007C77.1605 0.5419 76.6071 0.954928 76.519 1.5524Z" fill="#C37BFD"/>
<path fill-rule="evenodd" clip-rule="evenodd" d="M3.75002 61.8496C5.2974 60.718 7.25503 59.3193 7.47254 59.1541C13.3674 54.6772 18.2519 49.5257 22.5526 43.4821C22.9023 42.992 22.7866 42.3092 22.2965 41.9595C21.8064 41.6098 21.1236 41.7255 20.774 42.2156C16.6054 48.0775 11.8697 53.0748 6.15099 57.4168C5.81784 57.6701 1.41517 60.8116 0.572651 61.5137C0.22573 61.8001 0.118425 62.0699 0.0991512 62.136C-0.0164892 62.4829 0.0523228 62.7555 0.145936 62.9537C0.253317 63.1767 0.520321 63.5017 1.03795 63.6669C1.58036 63.8376 2.78638 63.9147 3.08924 63.9587C7.65704 64.6361 12.8141 64.994 17.5085 66.2936C21.9855 67.5326 26.0466 69.6306 28.6512 73.8349C28.9679 74.3471 29.6424 74.504 30.1545 74.1874C30.6667 73.8707 30.8237 73.1962 30.507 72.6841C27.594 67.9841 23.095 65.5749 18.0921 64.19C13.4252 62.8987 8.31506 62.5077 3.75002 61.8496Z" fill="#C37BFD"/>
</svg>
